%YAML 1.1
%TAG !u! tag:unity3d.com,2011:
--- !u!74 &7400000
AnimationClip:
  m_ObjectHideFlags: 0
  m_PrefabParentObject: {fileID: 0}
  m_PrefabInternal: {fileID: 0}
  m_Name: Camera_Animation3
  serializedVersion: 6
  m_Legacy: 0
  m_Compressed: 0
  m_UseHighQualityCurve: 1
  m_RotationCurves:
  - curve:
      serializedVersion: 2
      m_Curve:
      - serializedVersion: 2
        time: 0
        value: {x: -0, y: -0.9770238, z: -0, w: 0.2131303}
        inSlope: {x: 0, y: -0.0095644, z: 0, w: -0.049901083}
        outSlope: {x: 0, y: -0.0095644, z: 0, w: -0.049901083}
        tangentMode: 0
      - serializedVersion: 2
        time: 1
        value: {x: -0, y: -0.9865882, z: -0, w: 0.16322921}
        inSlope: {x: 0, y: -0.00812155, z: 0, w: -0.048640855}
        outSlope: {x: 0, y: -0.00812155, z: 0, w: -0.048640855}
        tangentMode: 0
      - serializedVersion: 2
        time: 2
        value: {x: -0, y: -0.9932669, z: -0, w: 0.115848586}
        inSlope: {x: 0, y: -0.005591601, z: 0, w: -0.04825179}
        outSlope: {x: 0, y: -0.005591601, z: 0, w: -0.04825179}
        tangentMode: 0
      - serializedVersion: 2
        time: 3
        value: {x: -0, y: -0.9977714, z: -0, w: 0.066725634}
        inSlope: {x: 0, y: -0.0033333898, z: 0, w: -0.052165337}
        outSlope: {x: 0, y: -0.0033333898, z: 0, w: -0.052165337}
        tangentMode: 0
      - serializedVersion: 2
        time: 4
        value: {x: -0, y: -0.99993366, z: -0, w: 0.011517909}
        inSlope: {x: 0, y: -0.00038269162, z: 0, w: -0.06040141}
        outSlope: {x: 0, y: -0.00038269162, z: 0, w: -0.06040141}
        tangentMode: 0
      - serializedVersion: 2
        time: 5
        value: {x: -0, y: -0.99853677, z: -0, w: -0.05407718}
        inSlope: {x: 0, y: 0.004429221, z: 0, w: -0.07241078}
        outSlope: {x: 0, y: 0.004429221, z: 0, w: -0.07241078}
        tangentMode: 0
      - serializedVersion: 2
        time: 6
        value: {x: -0, y: -0.9910752, z: -0, w: -0.13330364}
        inSlope: {x: 0, y: 0.011794955, z: 0, w: -0.08418041}
        outSlope: {x: 0, y: 0.011794955, z: 0, w: -0.08418041}
        tangentMode: 0
      - serializedVersion: 2
        time: 7
        value: {x: -0, y: -0.97494686, z: -0, w: -0.222438}
        inSlope: {x: 0, y: 0.02100256, z: 0, w: -0.09088068}
        outSlope: {x: 0, y: 0.02100256, z: 0, w: -0.09088068}
        tangentMode: 0
      - serializedVersion: 2
        time: 8
        value: {x: -0, y: -0.9490701, z: -0, w: -0.315065}
        inSlope: {x: 0, y: 0.030302465, z: 0, w: -0.09125254}
        outSlope: {x: 0, y: 0.030302465, z: 0, w: -0.09125254}
        tangentMode: 0
      - serializedVersion: 2
        time: 9
        value: {x: -0, y: -0.9143419, z: -0, w: -0.40494308}
        inSlope: {x: 0, y: 0.037692904, z: 0, w: -0.08571418}
        outSlope: {x: 0, y: 0.037692904, z: 0, w: -0.08571418}
        tangentMode: 0
      - serializedVersion: 2
        time: 10
        value: {x: -0, y: -0.8736843, z: -0, w: -0.48649335}
        inSlope: {x: 0, y: 0.043242395, z: 0, w: -0.07799797}
        outSlope: {x: 0, y: 0.043242395, z: 0, w: -0.07799797}
        tangentMode: 0
      - serializedVersion: 2
        time: 11
        value: {x: -0, y: -0.82785714, z: -0, w: -0.560939}
        inSlope: {x: 0, y: 0.04896027, z: 0, w: -0.07226506}
        outSlope: {x: 0, y: 0.04896027, z: 0, w: -0.07226506}
        tangentMode: 0
      - serializedVersion: 2
        time: 12
        value: {x: -0, y: -0.77576375, z: -0, w: -0.63102347}
        inSlope: {x: 0, y: 0.05422029, z: 0, w: -0.066819936}
        outSlope: {x: 0, y: 0.05422029, z: 0, w: -0.066819936}
        tangentMode: 0
      - serializedVersion: 2
        time: 13
        value: {x: -0, y: -0.71941656, z: -0, w: -0.6945789}
        inSlope: {x: 0, y: 0.0571824, z: 0, w: -0.059505403}
        outSlope: {x: 0, y: 0.0571824, z: 0, w: -0.059505403}
        tangentMode: 0
      - serializedVersion: 2
        time: 14
        value: {x: -0, y: -0.66139895, z: -0, w: -0.7500343}
        inSlope: {x: 0, y: 0.05736199, z: 0, w: -0.050940037}
        outSlope: {x: 0, y: 0.05736199, z: 0, w: -0.050940037}
        tangentMode: 0
      - serializedVersion: 2
        time: 15
        value: {x: -0, y: -0.6046926, z: -0, w: -0.79645896}
        inSlope: {x: 0, y: 0.05498427, z: 0, w: -0.042093307}
        outSlope: {x: 0, y: 0.05498427, z: 0, w: -0.042093307}
        tangentMode: 0
      - serializedVersion: 2
        time: 16
        value: {x: -0, y: -0.5514304, z: -0, w: -0.8342209}
        inSlope: {x: 0, y: 0.051632613, z: 0, w: -0.034370393}
        outSlope: {x: 0, y: 0.051632613, z: 0, w: -0.034370393}
        tangentMode: 0
      - serializedVersion: 2
        time: 17
        value: {x: -0, y: -0.50142735, z: -0, w: -0.86519974}
        inSlope: {x: 0, y: 0.04866901, z: 0, w: -0.028366864}
        outSlope: {x: 0, y: 0.04866901, z: 0, w: -0.028366864}
        tangentMode: 0
      - serializedVersion: 2
        time: 18
        value: {x: -0, y: -0.45409238, z: -0, w: -0.8909546}
        inSlope: {x: 0, y: 0.04644136, z: 0, w: -0.02376929}
        outSlope: {x: 0, y: 0.04644136, z: 0, w: -0.02376929}
        tangentMode: 0
      - serializedVersion: 2
        time: 19
        value: {x: -0, y: -0.40854463, z: -0, w: -0.9127383}
        inSlope: {x: 0, y: 0.04519984, z: 0, w: -0.02028218}
        outSlope: {x: 0, y: 0.04519984, z: 0, w: -0.02028218}
        tangentMode: 0
      - serializedVersion: 2
        time: 20
        value: {x: -0, y: -0.3636927, z: -0, w: -0.931519}
        inSlope: {x: 0, y: 0.04299675, z: 0, w: -0.016906857}
        outSlope: {x: 0, y: 0.04299675, z: 0, w: -0.016906857}
        tangentMode: 0
      - serializedVersion: 2
        time: 21
        value: {x: -0, y: -0.32255113, z: -0, w: -0.94655204}
        inSlope: {x: 0, y: 0.03864689, z: 0, w: -0.01329574}
        outSlope: {x: 0, y: 0.03864689, z: 0, w: -0.01329574}
        tangentMode: 0
      - serializedVersion: 2
        time: 22
        value: {x: -0, y: -0.28639892, z: -0, w: -0.95811045}
        inSlope: {x: 0, y: 0.035676897, z: 0, w: -0.010691941}
        outSlope: {x: 0, y: 0.035676897, z: 0, w: -0.010691941}
        tangentMode: 0
      - serializedVersion: 2
        time: 23
        value: {x: -0, y: -0.25119734, z: -0, w: -0.9679359}
        inSlope: {x: 0, y: 0.036850117, z: 0, w: -0.009503692}
        outSlope: {x: 0, y: 0.036850117, z: 0, w: -0.009503692}
        tangentMode: 0
      - serializedVersion: 2
        time: 24
        value: {x: -0, y: -0.21269868, z: -0, w: -0.97711784}
        inSlope: {x: 0, y: 0.042346783, z: 0, w: -0.009052455}
        outSlope: {x: 0, y: 0.042346783, z: 0, w: -0.009052455}
        tangentMode: 0
      - serializedVersion: 2
        time: 25
        value: {x: -0, y: -0.16650377, z: -0, w: -0.98604083}
        inSlope: {x: 0, y: 0.05037085, z: 0, w: -0.008297622}
        outSlope: {x: 0, y: 0.05037085, z: 0, w: -0.008297622}
        tangentMode: 0
      - serializedVersion: 2
        time: 26
        value: {x: -0, y: -0.111956984, z: -0, w: -0.9937131}
        inSlope: {x: 0, y: 0.05715815, z: 0, w: -0.006298244}
        outSlope: {x: 0, y: 0.05715815, z: 0, w: -0.006298244}
        tangentMode: 0
      - serializedVersion: 2
        time: 27
        value: {x: -0, y: -0.05218747, z: -0, w: -0.9986373}
        inSlope: {x: 0, y: 0.061743945, z: 0, w: -0.00311023}
        outSlope: {x: 0, y: 0.061743945, z: 0, w: -0.00311023}
        tangentMode: 0
      - serializedVersion: 2
        time: 28
        value: {x: -0, y: 0.0115309, z: -0, w: -0.99993354}
        inSlope: {x: 0, y: 0.065007254, z: 0, w: 0.0008352101}
        outSlope: {x: 0, y: 0.065007254, z: 0, w: 0.0008352101}
        tangentMode: 0
      - serializedVersion: 2
        time: 29
        value: {x: -0, y: 0.077827044, z: -0, w: -0.9969669}
        inSlope: {x: 0, y: 0.06686854, z: 0, w: 0.0052706003}
        outSlope: {x: 0, y: 0.06686854, z: 0, w: 0.0052706003}
        tangentMode: 0
      - serializedVersion: 2
        time: 30
        value: {x: -0, y: 0.14526798, z: -0, w: -0.98939234}
        inSlope: {x: 0, y: 0.06728929, z: 0, w: 0.0098926425}
        outSlope: {x: 0, y: 0.06728929, z: 0, w: 0.0098926425}
        tangentMode: 0
      - serializedVersion: 2
        time: 31
        value: {x: -0, y: 0.21240562, z: -0, w: -0.9771816}
        inSlope: {x: 0, y: 0.06628067, z: 0, w: 0.014380932}
        outSlope: {x: 0, y: 0.06628067, z: 0, w: 0.014380932}
        tangentMode: 0
      - serializedVersion: 2
        time: 32
        value: {x: -0, y: 0.27782932, z: -0, w: -0.9606305}
        inSlope: {x: 0, y: 0.0639057, z: 0, w: 0.018417329}
        outSlope: {x: 0, y: 0.0639057, z: 0, w: 0.018417329}
        tangentMode: 0
      - serializedVersion: 2
        time: 33
        value: {x: -0, y: 0.34021702, z: -0, w: -0.94034696}
        inSlope: {x: 0, y: 0.06027484, z: 0, w: 0.021704793}
        outSlope: {x: 0, y: 0.06027484, z: 0, w: 0.021704793}
        tangentMode: 0
      - serializedVersion: 2
        time: 34
        value: {x: -0, y: 0.398379, z: -0, w: -0.9172209}
        inSlope: {x: 0, y: 0.05553566, z: 0, w: 0.023984373}
        outSlope: {x: 0, y: 0.05553566, z: 0, w: 0.023984373}
        tangentMode: 0
      - serializedVersion: 2
        time: 35
        value: {x: -0, y: 0.45128834, z: -0, w: -0.8923782}
        inSlope: {x: 0, y: 0.050586343, z: 0, w: 0.025468409}
        outSlope: {x: 0, y: 0.050586343, z: 0, w: 0.025468409}
        tangentMode: 0
      - serializedVersion: 2
        time: 36
        value: {x: -0, y: 0.49955168, z: -0, w: -0.8662841}
        inSlope: {x: 0, y: 0.046628058, z: 0, w: 0.026823133}
        outSlope: {x: 0, y: 0.046628058, z: 0, w: 0.026823133}
        tangentMode: 0
      - serializedVersion: 2
        time: 37
        value: {x: -0, y: 0.54454446, z: -0, w: -0.83873194}
        inSlope: {x: 0, y: 0.043486074, z: 0, w: 0.02817604}
        outSlope: {x: 0, y: 0.043486074, z: 0, w: 0.02817604}
        tangentMode: 0
      - serializedVersion: 2
        time: 38
        value: {x: -0, y: 0.58652383, z: -0, w: -0.809932}
        inSlope: {x: 0, y: 0.040598303, z: 0, w: 0.029350549}
        outSlope: {x: 0, y: 0.040598303, z: 0, w: 0.029350549}
        tangentMode: 0
      - serializedVersion: 2
        time: 39
        value: {x: -0, y: 0.62574106, z: -0, w: -0.78003085}
        inSlope: {x: 0, y: 0.037956327, z: 0, w: 0.030406952}
        outSlope: {x: 0, y: 0.037956327, z: 0, w: 0.030406952}
        tangentMode: 0
      - serializedVersion: 2
        time: 40
        value: {x: -0, y: 0.6624365, z: -0, w: -0.7491181}
        inSlope: {x: 0, y: 0.035546362, z: 0, w: 0.0313991}
        outSlope: {x: 0, y: 0.035546362, z: 0, w: 0.0313991}
        tangentMode: 0
      - serializedVersion: 2
        time: 41
        value: {x: -0, y: 0.6968338, z: -0, w: -0.71723264}
        inSlope: {x: 0, y: 0.03335002, z: 0, w: 0.03237492}
        outSlope: {x: 0, y: 0.03335002, z: 0, w: 0.03237492}
        tangentMode: 0
      - serializedVersion: 2
        time: 42
        value: {x: -0, y: 0.7291365, z: -0, w: -0.68436825}
        inSlope: {x: 0, y: 0.031345278, z: 0, w: 0.033376902}
        outSlope: {x: 0, y: 0.031345278, z: 0, w: 0.033376902}
        tangentMode: 0
      - serializedVersion: 2
        time: 43
        value: {x: -0, y: 0.75952435, z: -0, w: -0.65047884}
        inSlope: {x: 0, y: 0.029506773, z: 0, w: 0.034442574}
        outSlope: {x: 0, y: 0.029506773, z: 0, w: 0.034442574}
        tangentMode: 0
      - serializedVersion: 2
        time: 44
        value: {x: -0, y: 0.7881501, z: -0, w: -0.6154831}
        inSlope: {x: 0, y: 0.027806014, z: 0, w: 0.035604864}
        outSlope: {x: 0, y: 0.027806014, z: 0, w: 0.035604864}
        tangentMode: 0
      - serializedVersion: 2
        time: 45
        value: {x: -0, y: 0.8151364, z: -0, w: -0.5792691}
        inSlope: {x: 0, y: 0.026004404, z: 0, w: 0.036571354}
        outSlope: {x: 0, y: 0.026004404, z: 0, w: 0.036571354}
        tangentMode: 0
      - serializedVersion: 2
        time: 46
        value: {x: -0, y: 0.8401589, z: -0, w: -0.5423404}
        inSlope: {x: 0, y: 0.02390787, z: 0, w: 0.036991715}
        outSlope: {x: 0, y: 0.02390787, z: 0, w: 0.036991715}
        tangentMode: 0
      - serializedVersion: 2
        time: 47
        value: {x: -0, y: 0.8629521, z: -0, w: -0.5052857}
        inSlope: {x: 0, y: 0.02176407, z: 0, w: 0.037131056}
        outSlope: {x: 0, y: 0.02176407, z: 0, w: 0.037131056}
        tangentMode: 0
      - serializedVersion: 2
        time: 48
        value: {x: -0, y: 0.883687, z: -0, w: -0.4680783}
        inSlope: {x: 0, y: 0.019779533, z: 0, w: 0.03730963}
        outSlope: {x: 0, y: 0.019779533, z: 0, w: 0.03730963}
        tangentMode: 0
      - serializedVersion: 2
        time: 49
        value: {x: -0, y: 0.9025112, z: -0, w: -0.43066642}
        inSlope: {x: 0, y: 0.017930627, z: 0, w: 0.03755063}
        outSlope: {x: 0, y: 0.017930627, z: 0, w: 0.03755063}
        tangentMode: 0
      - serializedVersion: 2
        time: 50
        value: {x: -0, y: 0.9195483, z: -0, w: -0.39297703}
        inSlope: {x: 0, y: 0.016192943, z: 0, w: 0.03787373}
        outSlope: {x: 0, y: 0.016192943, z: 0, w: 0.03787373}
        tangentMode: 0
      - serializedVersion: 2
        time: 51
        value: {x: -0, y: 0.93489707, z: -0, w: -0.35491896}
        inSlope: {x: 0, y: 0.01454106, z: 0, w: 0.03829533}
        outSlope: {x: 0, y: 0.01454106, z: 0, w: 0.03829533}
        tangentMode: 0
      - serializedVersion: 2
        time: 52
        value: {x: -0, y: 0.9486304, z: -0, w: -0.31638637}
        inSlope: {x: 0, y: 0.012948632, z: 0, w: 0.038828462}
        outSlope: {x: 0, y: 0.012948632, z: 0, w: 0.038828462}
        tangentMode: 0
      - serializedVersion: 2
        time: 53
        value: {x: -0, y: 0.9607943, z: -0, w: -0.27726203}
        inSlope: {x: 0, y: 0.011388361, z: 0, w: 0.03948328}
        outSlope: {x: 0, y: 0.011388361, z: 0, w: 0.03948328}
        tangentMode: 0
      - serializedVersion: 2
        time: 54
        value: {x: -0, y: 0.9714071, z: -0, w: -0.23741981}
        inSlope: {x: 0, y: 0.009831846, z: 0, w: 0.040266782}
        outSlope: {x: 0, y: 0.009831846, z: 0, w: 0.040266782}
        tangentMode: 0
      - serializedVersion: 2
        time: 55
        value: {x: -0, y: 0.980458, z: -0, w: -0.19672847}
        inSlope: {x: 0, y: 0.009050906, z: 0, w: 0.040691346}
        outSlope: {x: 0, y: 0.009050906, z: 0, w: 0.040691346}
        tangentMode: 0
      m_PreInfinity: 2
      m_PostInfinity: 2
      m_RotationOrder: 4
    path: 
  m_CompressedRotationCurves: []
  m_EulerCurves: []
  m_PositionCurves:
  - curve:
      serializedVersion: 2
      m_Curve:
      - serializedVersion: 2
        time: 0
        value: {x: 359.416, y: 12.5, z: 368.363}
        inSlope: {x: 0.14976074, y: 0, z: 0.06667969}
        outSlope: {x: 0.14976074, y: 0, z: 0.06667969}
        tangentMode: 0
      - serializedVersion: 2
        time: 25
        value: {x: 363.16, y: 12.5, z: 370.03}
        inSlope: {x: 0.18987976, y: 0, z: 0.09934021}
        outSlope: {x: 0.18987976, y: 0, z: 0.09934021}
        tangentMode: 0
      - serializedVersion: 2
        time: 30
        value: {x: 364.31, y: 12.5, z: 370.69}
        inSlope: {x: 0.15, y: 0, z: 0.09800109}
        outSlope: {x: 0.15, y: 0, z: 0.09800109}
        tangentMode: 0
      - serializedVersion: 2
        time: 35
        value: {x: 364.66, y: 12.5, z: 371.01}
        inSlope: {x: 0.14700012, y: 0, z: 0.5330002}
        outSlope: {x: 0.14700012, y: 0, z: 0.5330002}
        tangentMode: 0
      - serializedVersion: 2
        time: 45
        value: {x: 366.9, y: 12.5, z: 381.03}
        inSlope: {x: -0.36399993, y: 0, z: 1.0194992}
        outSlope: {x: -0.36399993, y: 0, z: 1.0194992}
        tangentMode: 0
      - serializedVersion: 2
        time: 55
        value: {x: 357.38, y: 12.5, z: 391.4}
        inSlope: {x: -0.9519989, y: 0, z: 1.0369995}
        outSlope: {x: -0.9519989, y: 0, z: 1.0369995}
        tangentMode: 0
      m_PreInfinity: 2
      m_PostInfinity: 2
      m_RotationOrder: 4
    path: 
  m_ScaleCurves: []
  m_FloatCurves: []
  m_PPtrCurves: []
  m_SampleRate: 1
  m_WrapMode: 0
  m_Bounds:
    m_Center: {x: 0, y: 0, z: 0}
    m_Extent: {x: 0, y: 0, z: 0}
  m_ClipBindingConstant:
    genericBindings:
    - serializedVersion: 2
      path: 0
      attribute: 1
      script: {fileID: 0}
      typeID: 4
      customType: 0
      isPPtrCurve: 0
    - serializedVersion: 2
      path: 0
      attribute: 2
      script: {fileID: 0}
      typeID: 4
      customType: 0
      isPPtrCurve: 0
    pptrCurveMapping: []
  m_AnimationClipSettings:
    serializedVersion: 2
    m_AdditiveReferencePoseClip: {fileID: 0}
    m_AdditiveReferencePoseTime: 0
    m_StartTime: 0
    m_StopTime: 55
    m_OrientationOffsetY: 0
    m_Level: 0
    m_CycleOffset: 0
    m_HasAdditiveReferencePose: 0
    m_LoopTime: 1
    m_LoopBlend: 0
    m_LoopBlendOrientation: 0
    m_LoopBlendPositionY: 0
    m_LoopBlendPositionXZ: 0
    m_KeepOriginalOrientation: 0
    m_KeepOriginalPositionY: 1
    m_KeepOriginalPositionXZ: 0
    m_HeightFromFeet: 0
    m_Mirror: 0
  m_EditorCurves:
  - curve:
      serializedVersion: 2
      m_Curve:
      - serializedVersion: 2
        time: 0
        value: 359.416
        inSlope: 0.14976074
        outSlope: 0.14976074
        tangentMode: 34
      - serializedVersion: 2
        time: 25
        value: 363.16
        inSlope: 0.18987976
        outSlope: 0.18987976
        tangentMode: 34
      - serializedVersion: 2
        time: 30
        value: 364.31
        inSlope: 0.15
        outSlope: 0.15
        tangentMode: 34
      - serializedVersion: 2
        time: 35
        value: 364.66
        inSlope: 0.14700012
        outSlope: 0.14700012
        tangentMode: 34
      - serializedVersion: 2
        time: 45
        value: 366.9
        inSlope: -0.36399993
        outSlope: -0.36399993
        tangentMode: 34
      - serializedVersion: 2
        time: 55
        value: 357.38
        inSlope: -0.9519989
        outSlope: -0.9519989
        tangentMode: 34
      m_PreInfinity: 2
      m_PostInfinity: 2
      m_RotationOrder: 4
    attribute: m_LocalPosition.x
    path: 
    classID: 4
    script: {fileID: 0}
  - curve:
      serializedVersion: 2
      m_Curve:
      - serializedVersion: 2
        time: 0
        value: 12.5
        inSlope: 0
        outSlope: 0
        tangentMode: 34
      - serializedVersion: 2
        time: 25
        value: 12.5
        inSlope: 0
        outSlope: 0
        tangentMode: 34
      - serializedVersion: 2
        time: 30
        value: 12.5
        inSlope: 0
        outSlope: 0
        tangentMode: 34
      - serializedVersion: 2
        time: 35
        value: 12.5
        inSlope: 0
        outSlope: 0
        tangentMode: 34
      - serializedVersion: 2
        time: 45
        value: 12.5
        inSlope: 0
        outSlope: 0
        tangentMode: 34
      - serializedVersion: 2
        time: 55
        value: 12.5
        inSlope: 0
        outSlope: 0
        tangentMode: 34
      m_PreInfinity: 2
      m_PostInfinity: 2
      m_RotationOrder: 4
    attribute: m_LocalPosition.y
    path: 
    classID: 4
    script: {fileID: 0}
  - curve:
      serializedVersion: 2
      m_Curve:
      - serializedVersion: 2
        time: 0
        value: 368.363
        inSlope: 0.06667969
        outSlope: 0.06667969
        tangentMode: 34
      - serializedVersion: 2
        time: 25
        value: 370.03
        inSlope: 0.09934021
        outSlope: 0.09934021
        tangentMode: 34
      - serializedVersion: 2
        time: 30
        value: 370.69
        inSlope: 0.09800109
        outSlope: 0.09800109
        tangentMode: 34
      - serializedVersion: 2
        time: 35
        value: 371.01
        inSlope: 0.5330002
        outSlope: 0.5330002
        tangentMode: 34
      - serializedVersion: 2
        time: 45
        value: 381.03
        inSlope: 1.0194992
        outSlope: 1.0194992
        tangentMode: 34
      - serializedVersion: 2
        time: 55
        value: 391.4
        inSlope: 1.0369995
        outSlope: 1.0369995
        tangentMode: 34
      m_PreInfinity: 2
      m_PostInfinity: 2
      m_RotationOrder: 4
    attribute: m_LocalPosition.z
    path: 
    classID: 4
    script: {fileID: 0}
  - curve:
      serializedVersion: 2
      m_Curve:
      - serializedVersion: 2
        time: 0
        value: -0
        inSlope: 0
        outSlope: 0
        tangentMode: 0
      - serializedVersion: 2
        time: 1
        value: -0
        inSlope: 0
        outSlope: 0
        tangentMode: 0
      - serializedVersion: 2
        time: 2
        value: -0
        inSlope: 0
        outSlope: 0
        tangentMode: 0
      - serializedVersion: 2
        time: 3
        value: -0
        inSlope: 0
        outSlope: 0
        tangentMode: 0
      - serializedVersion: 2
        time: 4
        value: -0
        inSlope: 0
        outSlope: 0
        tangentMode: 0
      - serializedVersion: 2
        time: 5
        value: -0
        inSlope: 0
        outSlope: 0
        tangentMode: 0
      - serializedVersion: 2
        time: 6
        value: -0
        inSlope: 0
        outSlope: 0
        tangentMode: 0
      - serializedVersion: 2
        time: 7
        value: -0
        inSlope: 0
        outSlope: 0
        tangentMode: 0
      - serializedVersion: 2
        time: 8
        value: -0
        inSlope: 0
        outSlope: 0
        tangentMode: 0
      - serializedVersion: 2
        time: 9
        value: -0
        inSlope: 0
        outSlope: 0
        tangentMode: 0
      - serializedVersion: 2
        time: 10
        value: -0
        inSlope: 0
        outSlope: 0
        tangentMode: 0
      - serializedVersion: 2
        time: 11
        value: -0
        inSlope: 0
        outSlope: 0
        tangentMode: 0
      - serializedVersion: 2
        time: 12
        value: -0
        inSlope: 0
        outSlope: 0
        tangentMode: 0
      - serializedVersion: 2
        time: 13
        value: -0
        inSlope: 0
        outSlope: 0
        tangentMode: 0
      - serializedVersion: 2
        time: 14
        value: -0
        inSlope: 0
        outSlope: 0
        tangentMode: 0
      - serializedVersion: 2
        time: 15
        value: -0
        inSlope: 0
        outSlope: 0
        tangentMode: 0
      - serializedVersion: 2
        time: 16
        value: -0
        inSlope: 0
        outSlope: 0
        tangentMode: 0
      - serializedVersion: 2
        time: 17
        value: -0
        inSlope: 0
        outSlope: 0
        tangentMode: 0
      - serializedVersion: 2
        time: 18
        value: -0
        inSlope: 0
        outSlope: 0
        tangentMode: 0
      - serializedVersion: 2
        time: 19
        value: -0
        inSlope: 0
        outSlope: 0
        tangentMode: 0
      - serializedVersion: 2
        time: 20
        value: -0
        inSlope: 0
        outSlope: 0
        tangentMode: 0
      - serializedVersion: 2
        time: 21
        value: -0
        inSlope: 0
        outSlope: 0
        tangentMode: 0
      - serializedVersion: 2
        time: 22
        value: -0
        inSlope: 0
        outSlope: 0
        tangentMode: 0
      - serializedVersion: 2
        time: 23
        value: -0
        inSlope: 0
        outSlope: 0
        tangentMode: 0
      - serializedVersion: 2
        time: 24
        value: -0
        inSlope: 0
        outSlope: 0
        tangentMode: 0
      - serializedVersion: 2
        time: 25
        value: -0
        inSlope: 0
        outSlope: 0
        tangentMode: 0
      - serializedVersion: 2
        time: 26
        value: -0
        inSlope: 0
        outSlope: 0
        tangentMode: 0
      - serializedVersion: 2
        time: 27
        value: -0
        inSlope: 0
        outSlope: 0
        tangentMode: 0
      - serializedVersion: 2
        time: 28
        value: -0
        inSlope: 0
        outSlope: 0
        tangentMode: 0
      - serializedVersion: 2
        time: 29
        value: -0
        inSlope: 0
        outSlope: 0
        tangentMode: 0
      - serializedVersion: 2
        time: 30
        value: -0
        inSlope: 0
        outSlope: 0
        tangentMode: 0
      - serializedVersion: 2
        time: 31
        value: -0
        inSlope: 0
        outSlope: 0
        tangentMode: 0
      - serializedVersion: 2
        time: 32
        value: -0
        inSlope: 0
        outSlope: 0
        tangentMode: 0
      - serializedVersion: 2
        time: 33
        value: -0
        inSlope: 0
        outSlope: 0
        tangentMode: 0
      - serializedVersion: 2
        time: 34
        value: -0
        inSlope: 0
        outSlope: 0
        tangentMode: 0
      - serializedVersion: 2
        time: 35
        value: -0
        inSlope: 0
        outSlope: 0
        tangentMode: 0
      - serializedVersion: 2
        time: 36
        value: -0
        inSlope: 0
        outSlope: 0
        tangentMode: 0
      - serializedVersion: 2
        time: 37
        value: -0
        inSlope: 0
        outSlope: 0
        tangentMode: 0
      - serializedVersion: 2
        time: 38
        value: -0
        inSlope: 0
        outSlope: 0
        tangentMode: 0
      - serializedVersion: 2
        time: 39
        value: -0
        inSlope: 0
        outSlope: 0
        tangentMode: 0
      - serializedVersion: 2
        time: 40
        value: -0
        inSlope: 0
        outSlope: 0
        tangentMode: 0
      - serializedVersion: 2
        time: 41
        value: -0
        inSlope: 0
        outSlope: 0
        tangentMode: 0
      - serializedVersion: 2
        time: 42
        value: -0
        inSlope: 0
        outSlope: 0
        tangentMode: 0
      - serializedVersion: 2
        time: 43
        value: -0
        inSlope: 0
        outSlope: 0
        tangentMode: 0
      - serializedVersion: 2
        time: 44
        value: -0
        inSlope: 0
        outSlope: 0
        tangentMode: 0
      - serializedVersion: 2
        time: 45
        value: -0
        inSlope: 0
        outSlope: 0
        tangentMode: 0
      - serializedVersion: 2
        time: 46
        value: -0
        inSlope: 0
        outSlope: 0
        tangentMode: 0
      - serializedVersion: 2
        time: 47
        value: -0
        inSlope: 0
        outSlope: 0
        tangentMode: 0
      - serializedVersion: 2
        time: 48
        value: -0
        inSlope: 0
        outSlope: 0
        tangentMode: 0
      - serializedVersion: 2
        time: 49
        value: -0
        inSlope: 0
        outSlope: 0
        tangentMode: 0
      - serializedVersion: 2
        time: 50
        value: -0
        inSlope: 0
        outSlope: 0
        tangentMode: 0
      - serializedVersion: 2
        time: 51
        value: -0
        inSlope: 0
        outSlope: 0
        tangentMode: 0
      - serializedVersion: 2
        time: 52
        value: -0
        inSlope: 0
        outSlope: 0
        tangentMode: 0
      - serializedVersion: 2
        time: 53
        value: -0
        inSlope: 0
        outSlope: 0
        tangentMode: 0
      - serializedVersion: 2
        time: 54
        value: -0
        inSlope: 0
        outSlope: 0
        tangentMode: 0
      - serializedVersion: 2
        time: 55
        value: -0
        inSlope: 0
        outSlope: 0
        tangentMode: 0
      m_PreInfinity: 2
      m_PostInfinity: 2
      m_RotationOrder: 4
    attribute: m_LocalRotation.x
    path: 
    classID: 4
    script: {fileID: 0}
  - curve:
      serializedVersion: 2
      m_Curve:
      - serializedVersion: 2
        time: 0
        value: -0.9770238
        inSlope: -0.0095644
        outSlope: -0.0095644
        tangentMode: 0
      - serializedVersion: 2
        time: 1
        value: -0.9865882
        inSlope: -0.00812155
        outSlope: -0.00812155
        tangentMode: 0
      - serializedVersion: 2
        time: 2
        value: -0.9932669
        inSlope: -0.005591601
        outSlope: -0.005591601
        tangentMode: 0
      - serializedVersion: 2
        time: 3
        value: -0.9977714
        inSlope: -0.0033333898
        outSlope: -0.0033333898
        tangentMode: 0
      - serializedVersion: 2
        time: 4
        value: -0.99993366
        inSlope: -0.00038269162
        outSlope: -0.00038269162
        tangentMode: 0
      - serializedVersion: 2
        time: 5
        value: -0.99853677
        inSlope: 0.004429221
        outSlope: 0.004429221
        tangentMode: 0
      - serializedVersion: 2
        time: 6
        value: -0.9910752
        inSlope: 0.011794955
        outSlope: 0.011794955
        tangentMode: 0
      - serializedVersion: 2
        time: 7
        value: -0.97494686
        inSlope: 0.02100256
        outSlope: 0.02100256
        tangentMode: 0
      - serializedVersion: 2
        time: 8
        value: -0.9490701
        inSlope: 0.030302465
        outSlope: 0.030302465
        tangentMode: 0
      - serializedVersion: 2
        time: 9
        value: -0.9143419
        inSlope: 0.037692904
        outSlope: 0.037692904
        tangentMode: 0
      - serializedVersion: 2
        time: 10
        value: -0.8736843
        inSlope: 0.043242395
        outSlope: 0.043242395
        tangentMode: 0
      - serializedVersion: 2
        time: 11
        value: -0.82785714
        inSlope: 0.04896027
        outSlope: 0.04896027
        tangentMode: 0
      - serializedVersion: 2
        time: 12
        value: -0.77576375
        inSlope: 0.05422029
        outSlope: 0.05422029
        tangentMode: 0
      - serializedVersion: 2
        time: 13
        value: -0.71941656
        inSlope: 0.0571824
        outSlope: 0.0571824
        tangentMode: 0
      - serializedVersion: 2
        time: 14
        value: -0.66139895
        inSlope: 0.05736199
        outSlope: 0.05736199
        tangentMode: 0
      - serializedVersion: 2
        time: 15
        value: -0.6046926
        inSlope: 0.05498427
        outSlope: 0.05498427
        tangentMode: 0
      - serializedVersion: 2
        time: 16
        value: -0.5514304
        inSlope: 0.051632613
        outSlope: 0.051632613
        tangentMode: 0
      - serializedVersion: 2
        time: 17
        value: -0.50142735
        inSlope: 0.04866901
        outSlope: 0.04866901
        tangentMode: 0
      - serializedVersion: 2
        time: 18
        value: -0.45409238
        inSlope: 0.04644136
        outSlope: 0.04644136
        tangentMode: 0
      - serializedVersion: 2
        time: 19
        value: -0.40854463
        inSlope: 0.04519984
        outSlope: 0.04519984
        tangentMode: 0
      - serializedVersion: 2
        time: 20
        value: -0.3636927
        inSlope: 0.04299675
        outSlope: 0.04299675
        tangentMode: 0
      - serializedVersion: 2
        time: 21
        value: -0.32255113
        inSlope: 0.03864689
        outSlope: 0.03864689
        tangentMode: 0
      - serializedVersion: 2
        time: 22
        value: -0.28639892
        inSlope: 0.035676897
        outSlope: 0.035676897
        tangentMode: 0
      - serializedVersion: 2
        time: 23
        value: -0.25119734
        inSlope: 0.036850117
        outSlope: 0.036850117
        tangentMode: 0
      - serializedVersion: 2
        time: 24
        value: -0.21269868
        inSlope: 0.042346783
        outSlope: 0.042346783
        tangentMode: 0
      - serializedVersion: 2
        time: 25
        value: -0.16650377
        inSlope: 0.05037085
        outSlope: 0.05037085
        tangentMode: 0
      - serializedVersion: 2
        time: 26
        value: -0.111956984
        inSlope: 0.05715815
        outSlope: 0.05715815
        tangentMode: 0
      - serializedVersion: 2
        time: 27
        value: -0.05218747
        inSlope: 0.061743945
        outSlope: 0.061743945
        tangentMode: 0
      - serializedVersion: 2
        time: 28
        value: 0.0115309
        inSlope: 0.065007254
        outSlope: 0.065007254
        tangentMode: 0
      - serializedVersion: 2
        time: 29
        value: 0.077827044
        inSlope: 0.06686854
        outSlope: 0.06686854
        tangentMode: 0
      - serializedVersion: 2
        time: 30
        value: 0.14526798
        inSlope: 0.06728929
        outSlope: 0.06728929
        tangentMode: 0
      - serializedVersion: 2
        time: 31
        value: 0.21240562
        inSlope: 0.06628067
        outSlope: 0.06628067
        tangentMode: 0
      - serializedVersion: 2
        time: 32
        value: 0.27782932
        inSlope: 0.0639057
        outSlope: 0.0639057
        tangentMode: 0
      - serializedVersion: 2
        time: 33
        value: 0.34021702
        inSlope: 0.06027484
        outSlope: 0.06027484
        tangentMode: 0
      - serializedVersion: 2
        time: 34
        value: 0.398379
        inSlope: 0.05553566
        outSlope: 0.05553566
        tangentMode: 0
      - serializedVersion: 2
        time: 35
        value: 0.45128834
        inSlope: 0.050586343
        outSlope: 0.050586343
        tangentMode: 0
      - serializedVersion: 2
        time: 36
        value: 0.49955168
        inSlope: 0.046628058
        outSlope: 0.046628058
        tangentMode: 0
      - serializedVersion: 2
        time: 37
        value: 0.54454446
        inSlope: 0.043486074
        outSlope: 0.043486074
        tangentMode: 0
      - serializedVersion: 2
        time: 38
        value: 0.58652383
        inSlope: 0.040598303
        outSlope: 0.040598303
        tangentMode: 0
      - serializedVersion: 2
        time: 39
        value: 0.62574106
        inSlope: 0.037956327
        outSlope: 0.037956327
        tangentMode: 0
      - serializedVersion: 2
        time: 40
        value: 0.6624365
        inSlope: 0.035546362
        outSlope: 0.035546362
        tangentMode: 0
      - serializedVersion: 2
        time: 41
        value: 0.6968338
        inSlope: 0.03335002
        outSlope: 0.03335002
        tangentMode: 0
      - serializedVersion: 2
        time: 42
        value: 0.7291365
        inSlope: 0.031345278
        outSlope: 0.031345278
        tangentMode: 0
      - serializedVersion: 2
        time: 43
        value: 0.75952435
        inSlope: 0.029506773
        outSlope: 0.029506773
        tangentMode: 0
      - serializedVersion: 2
        time: 44
        value: 0.7881501
        inSlope: 0.027806014
        outSlope: 0.027806014
        tangentMode: 0
      - serializedVersion: 2
        time: 45
        value: 0.8151364
        inSlope: 0.026004404
        outSlope: 0.026004404
        tangentMode: 0
      - serializedVersion: 2
        time: 46
        value: 0.8401589
        inSlope: 0.02390787
        outSlope: 0.02390787
        tangentMode: 0
      - serializedVersion: 2
        time: 47
        value: 0.8629521
        inSlope: 0.02176407
        outSlope: 0.02176407
        tangentMode: 0
      - serializedVersion: 2
        time: 48
        value: 0.883687
        inSlope: 0.019779533
        outSlope: 0.019779533
        tangentMode: 0
      - serializedVersion: 2
        time: 49
        value: 0.9025112
        inSlope: 0.017930627
        outSlope: 0.017930627
        tangentMode: 0
      - serializedVersion: 2
        time: 50
        value: 0.9195483
        inSlope: 0.016192943
        outSlope: 0.016192943
        tangentMode: 0
      - serializedVersion: 2
        time: 51
        value: 0.93489707
        inSlope: 0.01454106
        outSlope: 0.01454106
        tangentMode: 0
      - serializedVersion: 2
        time: 52
        value: 0.9486304
        inSlope: 0.012948632
        outSlope: 0.012948632
        tangentMode: 0
      - serializedVersion: 2
        time: 53
        value: 0.9607943
        inSlope: 0.011388361
        outSlope: 0.011388361
        tangentMode: 0
      - serializedVersion: 2
        time: 54
        value: 0.9714071
        inSlope: 0.009831846
        outSlope: 0.009831846
        tangentMode: 0
      - serializedVersion: 2
        time: 55
        value: 0.980458
        inSlope: 0.009050906
        outSlope: 0.009050906
        tangentMode: 0
      m_PreInfinity: 2
      m_PostInfinity: 2
      m_RotationOrder: 4
    attribute: m_LocalRotation.y
    path: 
    classID: 4
    script: {fileID: 0}
  - curve:
      serializedVersion: 2
      m_Curve:
      - serializedVersion: 2
        time: 0
        value: -0
        inSlope: 0
        outSlope: 0
        tangentMode: 0
      - serializedVersion: 2
        time: 1
        value: -0
        inSlope: 0
        outSlope: 0
        tangentMode: 0
      - serializedVersion: 2
        time: 2
        value: -0
        inSlope: 0
        outSlope: 0
        tangentMode: 0
      - serializedVersion: 2
        time: 3
        value: -0
        inSlope: 0
        outSlope: 0
        tangentMode: 0
      - serializedVersion: 2
        time: 4
        value: -0
        inSlope: 0
        outSlope: 0
        tangentMode: 0
      - serializedVersion: 2
        time: 5
        value: -0
        inSlope: 0
        outSlope: 0
        tangentMode: 0
      - serializedVersion: 2
        time: 6
        value: -0
        inSlope: 0
        outSlope: 0
        tangentMode: 0
      - serializedVersion: 2
        time: 7
        value: -0
        inSlope: 0
        outSlope: 0
        tangentMode: 0
      - serializedVersion: 2
        time: 8
        value: -0
        inSlope: 0
        outSlope: 0
        tangentMode: 0
      - serializedVersion: 2
        time: 9
        value: -0
        inSlope: 0
        outSlope: 0
        tangentMode: 0
      - serializedVersion: 2
        time: 10
        value: -0
        inSlope: 0
        outSlope: 0
        tangentMode: 0
      - serializedVersion: 2
        time: 11
        value: -0
        inSlope: 0
        outSlope: 0
        tangentMode: 0
      - serializedVersion: 2
        time: 12
        value: -0
        inSlope: 0
        outSlope: 0
        tangentMode: 0
      - serializedVersion: 2
        time: 13
        value: -0
        inSlope: 0
        outSlope: 0
        tangentMode: 0
      - serializedVersion: 2
        time: 14
        value: -0
        inSlope: 0
        outSlope: 0
        tangentMode: 0
      - serializedVersion: 2
        time: 15
        value: -0
        inSlope: 0
        outSlope: 0
        tangentMode: 0
      - serializedVersion: 2
        time: 16
        value: -0
        inSlope: 0
        outSlope: 0
        tangentMode: 0
      - serializedVersion: 2
        time: 17
        value: -0
        inSlope: 0
        outSlope: 0
        tangentMode: 0
      - serializedVersion: 2
        time: 18
        value: -0
        inSlope: 0
        outSlope: 0
        tangentMode: 0
      - serializedVersion: 2
        time: 19
        value: -0
        inSlope: 0
        outSlope: 0
        tangentMode: 0
      - serializedVersion: 2
        time: 20
        value: -0
        inSlope: 0
        outSlope: 0
        tangentMode: 0
      - serializedVersion: 2
        time: 21
        value: -0
        inSlope: 0
        outSlope: 0
        tangentMode: 0
      - serializedVersion: 2
        time: 22
        value: -0
        inSlope: 0
        outSlope: 0
        tangentMode: 0
      - serializedVersion: 2
        time: 23
        value: -0
        inSlope: 0
        outSlope: 0
        tangentMode: 0
      - serializedVersion: 2
        time: 24
        value: -0
        inSlope: 0
        outSlope: 0
        tangentMode: 0
      - serializedVersion: 2
        time: 25
        value: -0
        inSlope: 0
        outSlope: 0
        tangentMode: 0
      - serializedVersion: 2
        time: 26
        value: -0
        inSlope: 0
        outSlope: 0
        tangentMode: 0
      - serializedVersion: 2
        time: 27
        value: -0
        inSlope: 0
        outSlope: 0
        tangentMode: 0
      - serializedVersion: 2
        time: 28
        value: -0
        inSlope: 0
        outSlope: 0
        tangentMode: 0
      - serializedVersion: 2
        time: 29
        value: -0
        inSlope: 0
        outSlope: 0
        tangentMode: 0
      - serializedVersion: 2
        time: 30
        value: -0
        inSlope: 0
        outSlope: 0
        tangentMode: 0
      - serializedVersion: 2
        time: 31
        value: -0
        inSlope: 0
        outSlope: 0
        tangentMode: 0
      - serializedVersion: 2
        time: 32
        value: -0
        inSlope: 0
        outSlope: 0
        tangentMode: 0
      - serializedVersion: 2
        time: 33
        value: -0
        inSlope: 0
        outSlope: 0
        tangentMode: 0
      - serializedVersion: 2
        time: 34
        value: -0
        inSlope: 0
        outSlope: 0
        tangentMode: 0
      - serializedVersion: 2
        time: 35
        value: -0
        inSlope: 0
        outSlope: 0
        tangentMode: 0
      - serializedVersion: 2
        time: 36
        value: -0
        inSlope: 0
        outSlope: 0
        tangentMode: 0
      - serializedVersion: 2
        time: 37
        value: -0
        inSlope: 0
        outSlope: 0
        tangentMode: 0
      - serializedVersion: 2
        time: 38
        value: -0
        inSlope: 0
        outSlope: 0
        tangentMode: 0
      - serializedVersion: 2
        time: 39
        value: -0
        inSlope: 0
        outSlope: 0
        tangentMode: 0
      - serializedVersion: 2
        time: 40
        value: -0
        inSlope: 0
        outSlope: 0
        tangentMode: 0
      - serializedVersion: 2
        time: 41
        value: -0
        inSlope: 0
        outSlope: 0
        tangentMode: 0
      - serializedVersion: 2
        time: 42
        value: -0
        inSlope: 0
        outSlope: 0
        tangentMode: 0
      - serializedVersion: 2
        time: 43
        value: -0
        inSlope: 0
        outSlope: 0
        tangentMode: 0
      - serializedVersion: 2
        time: 44
        value: -0
        inSlope: 0
        outSlope: 0
        tangentMode: 0
      - serializedVersion: 2
        time: 45
        value: -0
        inSlope: 0
        outSlope: 0
        tangentMode: 0
      - serializedVersion: 2
        time: 46
        value: -0
        inSlope: 0
        outSlope: 0
        tangentMode: 0
      - serializedVersion: 2
        time: 47
        value: -0
        inSlope: 0
        outSlope: 0
        tangentMode: 0
      - serializedVersion: 2
        time: 48
        value: -0
        inSlope: 0
        outSlope: 0
        tangentMode: 0
      - serializedVersion: 2
        time: 49
        value: -0
        inSlope: 0
        outSlope: 0
        tangentMode: 0
      - serializedVersion: 2
        time: 50
        value: -0
        inSlope: 0
        outSlope: 0
        tangentMode: 0
      - serializedVersion: 2
        time: 51
        value: -0
        inSlope: 0
        outSlope: 0
        tangentMode: 0
      - serializedVersion: 2
        time: 52
        value: -0
        inSlope: 0
        outSlope: 0
        tangentMode: 0
      - serializedVersion: 2
        time: 53
        value: -0
        inSlope: 0
        outSlope: 0
        tangentMode: 0
      - serializedVersion: 2
        time: 54
        value: -0
        inSlope: 0
        outSlope: 0
        tangentMode: 0
      - serializedVersion: 2
        time: 55
        value: -0
        inSlope: 0
        outSlope: 0
        tangentMode: 0
      m_PreInfinity: 2
      m_PostInfinity: 2
      m_RotationOrder: 4
    attribute: m_LocalRotation.z
    path: 
    classID: 4
    script: {fileID: 0}
  - curve:
      serializedVersion: 2
      m_Curve:
      - serializedVersion: 2
        time: 0
        value: 0.2131303
        inSlope: -0.049901083
        outSlope: -0.049901083
        tangentMode: 0
      - serializedVersion: 2
        time: 1
        value: 0.16322921
        inSlope: -0.048640855
        outSlope: -0.048640855
        tangentMode: 0
      - serializedVersion: 2
        time: 2
        value: 0.115848586
        inSlope: -0.04825179
        outSlope: -0.04825179
        tangentMode: 0
      - serializedVersion: 2
        time: 3
        value: 0.066725634
        inSlope: -0.052165337
        outSlope: -0.052165337
        tangentMode: 0
      - serializedVersion: 2
        time: 4
        value: 0.011517909
        inSlope: -0.06040141
        outSlope: -0.06040141
        tangentMode: 0
      - serializedVersion: 2
        time: 5
        value: -0.05407718
        inSlope: -0.07241078
        outSlope: -0.07241078
        tangentMode: 0
      - serializedVersion: 2
        time: 6
        value: -0.13330364
        inSlope: -0.08418041
        outSlope: -0.08418041
        tangentMode: 0
      - serializedVersion: 2
        time: 7
        value: -0.222438
        inSlope: -0.09088068
        outSlope: -0.09088068
        tangentMode: 0
      - serializedVersion: 2
        time: 8
        value: -0.315065
        inSlope: -0.09125254
        outSlope: -0.09125254
        tangentMode: 0
      - serializedVersion: 2
        time: 9
        value: -0.40494308
        inSlope: -0.08571418
        outSlope: -0.08571418
        tangentMode: 0
      - serializedVersion: 2
        time: 10
        value: -0.48649335
        inSlope: -0.07799797
        outSlope: -0.07799797
        tangentMode: 0
      - serializedVersion: 2
        time: 11
        value: -0.560939
        inSlope: -0.07226506
        outSlope: -0.07226506
        tangentMode: 0
      - serializedVersion: 2
        time: 12
        value: -0.63102347
        inSlope: -0.066819936
        outSlope: -0.066819936
        tangentMode: 0
      - serializedVersion: 2
        time: 13
        value: -0.6945789
        inSlope: -0.059505403
        outSlope: -0.059505403
        tangentMode: 0
      - serializedVersion: 2
        time: 14
        value: -0.7500343
        inSlope: -0.050940037
        outSlope: -0.050940037
        tangentMode: 0
      - serializedVersion: 2
        time: 15
        value: -0.79645896
        inSlope: -0.042093307
        outSlope: -0.042093307
        tangentMode: 0
      - serializedVersion: 2
        time: 16
        value: -0.8342209
        inSlope: -0.034370393
        outSlope: -0.034370393
        tangentMode: 0
      - serializedVersion: 2
        time: 17
        value: -0.86519974
        inSlope: -0.028366864
        outSlope: -0.028366864
        tangentMode: 0
      - serializedVersion: 2
        time: 18
        value: -0.8909546
        inSlope: -0.02376929
        outSlope: -0.02376929
        tangentMode: 0
      - serializedVersion: 2
        time: 19
        value: -0.9127383
        inSlope: -0.02028218
        outSlope: -0.02028218
        tangentMode: 0
      - serializedVersion: 2
        time: 20
        value: -0.931519
        inSlope: -0.016906857
        outSlope: -0.016906857
        tangentMode: 0
      - serializedVersion: 2
        time: 21
        value: -0.94655204
        inSlope: -0.01329574
        outSlope: -0.01329574
        tangentMode: 0
      - serializedVersion: 2
        time: 22
        value: -0.95811045
        inSlope: -0.010691941
        outSlope: -0.010691941
        tangentMode: 0
      - serializedVersion: 2
        time: 23
        value: -0.9679359
        inSlope: -0.009503692
        outSlope: -0.009503692
        tangentMode: 0
      - serializedVersion: 2
        time: 24
        value: -0.97711784
        inSlope: -0.009052455
        outSlope: -0.009052455
        tangentMode: 0
      - serializedVersion: 2
        time: 25
        value: -0.98604083
        inSlope: -0.008297622
        outSlope: -0.008297622
        tangentMode: 0
      - serializedVersion: 2
        time: 26
        value: -0.9937131
        inSlope: -0.006298244
        outSlope: -0.006298244
        tangentMode: 0
      - serializedVersion: 2
        time: 27
        value: -0.9986373
        inSlope: -0.00311023
        outSlope: -0.00311023
        tangentMode: 0
      - serializedVersion: 2
        time: 28
        value: -0.99993354
        inSlope: 0.0008352101
        outSlope: 0.0008352101
        tangentMode: 0
      - serializedVersion: 2
        time: 29
        value: -0.9969669
        inSlope: 0.0052706003
        outSlope: 0.0052706003
        tangentMode: 0
      - serializedVersion: 2
        time: 30
        value: -0.98939234
        inSlope: 0.0098926425
        outSlope: 0.0098926425
        tangentMode: 0
      - serializedVersion: 2
        time: 31
        value: -0.9771816
        inSlope: 0.014380932
        outSlope: 0.014380932
        tangentMode: 0
      - serializedVersion: 2
        time: 32
        value: -0.9606305
        inSlope: 0.018417329
        outSlope: 0.018417329
        tangentMode: 0
      - serializedVersion: 2
        time: 33
        value: -0.94034696
        inSlope: 0.021704793
        outSlope: 0.021704793
        tangentMode: 0
      - serializedVersion: 2
        time: 34
        value: -0.9172209
        inSlope: 0.023984373
        outSlope: 0.023984373
        tangentMode: 0
      - serializedVersion: 2
        time: 35
        value: -0.8923782
        inSlope: 0.025468409
        outSlope: 0.025468409
        tangentMode: 0
      - serializedVersion: 2
        time: 36
        value: -0.8662841
        inSlope: 0.026823133
        outSlope: 0.026823133
        tangentMode: 0
      - serializedVersion: 2
        time: 37
        value: -0.83873194
        inSlope: 0.02817604
        outSlope: 0.02817604
        tangentMode: 0
      - serializedVersion: 2
        time: 38
        value: -0.809932
        inSlope: 0.029350549
        outSlope: 0.029350549
        tangentMode: 0
      - serializedVersion: 2
        time: 39
        value: -0.78003085
        inSlope: 0.030406952
        outSlope: 0.030406952
        tangentMode: 0
      - serializedVersion: 2
        time: 40
        value: -0.7491181
        inSlope: 0.0313991
        outSlope: 0.0313991
        tangentMode: 0
      - serializedVersion: 2
        time: 41
        value: -0.71723264
        inSlope: 0.03237492
        outSlope: 0.03237492
        tangentMode: 0
      - serializedVersion: 2
        time: 42
        value: -0.68436825
        inSlope: 0.033376902
        outSlope: 0.033376902
        tangentMode: 0
      - serializedVersion: 2
        time: 43
        value: -0.65047884
        inSlope: 0.034442574
        outSlope: 0.034442574
        tangentMode: 0
      - serializedVersion: 2
        time: 44
        value: -0.6154831
        inSlope: 0.035604864
        outSlope: 0.035604864
        tangentMode: 0
      - serializedVersion: 2
        time: 45
        value: -0.5792691
        inSlope: 0.036571354
        outSlope: 0.036571354
        tangentMode: 0
      - serializedVersion: 2
        time: 46
        value: -0.5423404
        inSlope: 0.036991715
        outSlope: 0.036991715
        tangentMode: 0
      - serializedVersion: 2
        time: 47
        value: -0.5052857
        inSlope: 0.037131056
        outSlope: 0.037131056
        tangentMode: 0
      - serializedVersion: 2
        time: 48
        value: -0.4680783
        inSlope: 0.03730963
        outSlope: 0.03730963
        tangentMode: 0
      - serializedVersion: 2
        time: 49
        value: -0.43066642
        inSlope: 0.03755063
        outSlope: 0.03755063
        tangentMode: 0
      - serializedVersion: 2
        time: 50
        value: -0.39297703
        inSlope: 0.03787373
        outSlope: 0.03787373
        tangentMode: 0
      - serializedVersion: 2
        time: 51
        value: -0.35491896
        inSlope: 0.03829533
        outSlope: 0.03829533
        tangentMode: 0
      - serializedVersion: 2
        time: 52
        value: -0.31638637
        inSlope: 0.038828462
        outSlope: 0.038828462
        tangentMode: 0
      - serializedVersion: 2
        time: 53
        value: -0.27726203
        inSlope: 0.03948328
        outSlope: 0.03948328
        tangentMode: 0
      - serializedVersion: 2
        time: 54
        value: -0.23741981
        inSlope: 0.040266782
        outSlope: 0.040266782
        tangentMode: 0
      - serializedVersion: 2
        time: 55
        value: -0.19672847
        inSlope: 0.040691346
        outSlope: 0.040691346
        tangentMode: 0
      m_PreInfinity: 2
      m_PostInfinity: 2
      m_RotationOrder: 4
    attribute: m_LocalRotation.w
    path: 
    classID: 4
    script: {fileID: 0}
  m_EulerEditorCurves:
  - curve:
      serializedVersion: 2
      m_Curve:
      - serializedVersion: 2
        time: 0
        value: 0
        inSlope: 0
        outSlope: 0
        tangentMode: 34
      - serializedVersion: 2
        time: 5
        value: 0
        inSlope: 0
        outSlope: 0
        tangentMode: 34
      - serializedVersion: 2
        time: 10
        value: 0
        inSlope: 0
        outSlope: 0
        tangentMode: 34
      - serializedVersion: 2
        time: 15
        value: 0
        inSlope: 0
        outSlope: 0
        tangentMode: 34
      - serializedVersion: 2
        time: 20
        value: 0
        inSlope: 0
        outSlope: 0
        tangentMode: 34
      - serializedVersion: 2
        time: 25
        value: 0
        inSlope: 0
        outSlope: 0
        tangentMode: 34
      - serializedVersion: 2
        time: 35
        value: 0
        inSlope: 0
        outSlope: 0
        tangentMode: 34
      - serializedVersion: 2
        time: 45
        value: 0
        inSlope: 0
        outSlope: 0
        tangentMode: 34
      - serializedVersion: 2
        time: 55
        value: 0
        inSlope: 0
        outSlope: 0
        tangentMode: 34
      m_PreInfinity: 2
      m_PostInfinity: 2
      m_RotationOrder: 4
    attribute: localEulerAnglesBaked.x
    path: 
    classID: 4
    script: {fileID: 0}
  - curve:
      serializedVersion: 2
      m_Curve:
      - serializedVersion: 2
        time: 0
        value: 204.6117
        inSlope: -6.162305
        outSlope: -6.162305
        tangentMode: 34
      - serializedVersion: 2
        time: 5
        value: 173.80017
        inSlope: -8.283243
        outSlope: -8.283243
        tangentMode: 34
      - serializedVersion: 2
        time: 10
        value: 121.77927
        inSlope: -9.938673
        outSlope: -9.938673
        tangentMode: 34
      - serializedVersion: 2
        time: 15
        value: 74.41344
        inSlope: -7.9124966
        outSlope: -7.9124966
        tangentMode: 34
      - serializedVersion: 2
        time: 20
        value: 42.654297
        inSlope: -5.5244236
        outSlope: -5.5244236
        tangentMode: 34
      - serializedVersion: 2
        time: 25
        value: 19.169205
        inSlope: -5.989607
        outSlope: -5.989607
        tangentMode: 34
      - serializedVersion: 2
        time: 35
        value: -53.65274
        inSlope: -6.418545
        outSlope: -6.418545
        tangentMode: 34
      - serializedVersion: 2
        time: 45
        value: -109.20169
        inSlope: -5.1827908
        outSlope: -5.1827908
        tangentMode: 34
      - serializedVersion: 2
        time: 55
        value: -157.30856
        inSlope: -4.810687
        outSlope: -4.810687
        tangentMode: 34
      m_PreInfinity: 2
      m_PostInfinity: 2
      m_RotationOrder: 4
    attribute: localEulerAnglesBaked.y
    path: 
    classID: 4
    script: {fileID: 0}
  - curve:
      serializedVersion: 2
      m_Curve:
      - serializedVersion: 2
        time: 0
        value: 0
        inSlope: 0
        outSlope: 0
        tangentMode: 34
      - serializedVersion: 2
        time: 5
        value: 0
        inSlope: 0
        outSlope: 0
        tangentMode: 34
      - serializedVersion: 2
        time: 10
        value: 0
        inSlope: 0
        outSlope: 0
        tangentMode: 34
      - serializedVersion: 2
        time: 15
        value: 0
        inSlope: 0
        outSlope: 0
        tangentMode: 34
      - serializedVersion: 2
        time: 20
        value: 0
        inSlope: 0
        outSlope: 0
        tangentMode: 34
      - serializedVersion: 2
        time: 25
        value: 0
        inSlope: 0
        outSlope: 0
        tangentMode: 34
      - serializedVersion: 2
        time: 35
        value: 0
        inSlope: 0
        outSlope: 0
        tangentMode: 34
      - serializedVersion: 2
        time: 45
        value: 0
        inSlope: 0
        outSlope: 0
        tangentMode: 34
      - serializedVersion: 2
        time: 55
        value: 0
        inSlope: 0
        outSlope: 0
        tangentMode: 34
      m_PreInfinity: 2
      m_PostInfinity: 2
      m_RotationOrder: 4
    attribute: localEulerAnglesBaked.z
    path: 
    classID: 4
    script: {fileID: 0}
  m_HasGenericRootTransform: 1
  m_HasMotionFloatCurves: 0
  m_GenerateMotionCurves: 0
  m_Events: []
